%YAML 1.1
%TAG !u! tag:unity3d.com,2011:
--- !u!21 &2100000
Material:
  serializedVersion: 6
  m_ObjectHideFlags: 0
  m_CorrespondingSourceObject: {fileID: 0}
  m_PrefabInstance: {fileID: 0}
  m_PrefabAsset: {fileID: 0}
  m_Name: Shader Graphs_WinGateTransluscent_MAT
  m_Shader: {fileID: -6465566751694194690, guid: 92c9a75cdc917384abf7efc95c5afc0c, type: 3}
  m_ShaderKeywords: 
  m_LightmapFlags: 4
  m_EnableInstancingVariants: 0
  m_DoubleSidedGI: 0
  m_CustomRenderQueue: -1
  stringTagMap: {}
  disabledShaderPasses: []
  m_SavedProperties:
    serializedVersion: 3
    m_TexEnvs: []
    m_Floats:
    - Vector1_2EEBD400: 0.573
    - _Transparency: 0.357
    m_Colors:
    - _Color: {r: 1, g: 0.32790178, b: 0, a: 0}
    - _Emission: {r: 0, g: 0, b: 0, a: 0}
