%YAML 1.1
%TAG !u! tag:unity3d.com,2011:
--- !u!1001 &7149604570505508526
PrefabInstance:
  m_ObjectHideFlags: 0
  serializedVersion: 2
  m_Modification:
    m_TransformParent: {fileID: 0}
    m_Modifications:
    - target: {fileID: 4017923183772762301, guid: 308f61f1ee7813d47982614688ad691f, type: 3}
      propertyPath: m_RootOrder
      value: 0
      objectReference: {fileID: 0}
    - target: {fileID: 4017923183772762301, guid: 308f61f1ee7813d47982614688ad691f, type: 3}
      propertyPath: m_LocalPosition.x
      value: 0
      objectReference: {fileID: 0}
    - target: {fileID: 4017923183772762301, guid: 308f61f1ee7813d47982614688ad691f, type: 3}
      propertyPath: m_LocalPosition.y
      value: 0
      objectReference: {fileID: 0}
    - target: {fileID: 4017923183772762301, guid: 308f61f1ee7813d47982614688ad691f, type: 3}
      propertyPath: m_LocalPosition.z
      value: 0
      objectReference: {fileID: 0}
    - target: {fileID: 4017923183772762301, guid: 308f61f1ee7813d47982614688ad691f, type: 3}
      propertyPath: m_LocalRotation.w
      value: 1
      objectReference: {fileID: 0}
    - target: {fileID: 4017923183772762301, guid: 308f61f1ee7813d47982614688ad691f, type: 3}
      propertyPath: m_LocalRotation.x
      value: 0
      objectReference: {fileID: 0}
    - target: {fileID: 4017923183772762301, guid: 308f61f1ee7813d47982614688ad691f, type: 3}
      propertyPath: m_LocalRotation.y
      value: 0
      objectReference: {fileID: 0}
    - target: {fileID: 4017923183772762301, guid: 308f61f1ee7813d47982614688ad691f, type: 3}
      propertyPath: m_LocalRotation.z
      value: 0
      objectReference: {fileID: 0}
    - target: {fileID: 4017923183772762301, guid: 308f61f1ee7813d47982614688ad691f, type: 3}
      propertyPath: m_LocalEulerAnglesHint.x
      value: 0
      objectReference: {fileID: 0}
    - target: {fileID: 4017923183772762301, guid: 308f61f1ee7813d47982614688ad691f, type: 3}
      propertyPath: m_LocalEulerAnglesHint.y
      value: 0
      objectReference: {fileID: 0}
    - target: {fileID: 4017923183772762301, guid: 308f61f1ee7813d47982614688ad691f, type: 3}
      propertyPath: m_LocalEulerAnglesHint.z
      value: 0
      objectReference: {fileID: 0}
    - target: {fileID: 4017923183772762303, guid: 308f61f1ee7813d47982614688ad691f, type: 3}
      propertyPath: m_Name
      value: CubeVisuals_MovingCubeVariant
      objectReference: {fileID: 0}
    - target: {fileID: 4017923183841860994, guid: 308f61f1ee7813d47982614688ad691f, type: 3}
      propertyPath: m_Materials.Array.data[0]
      value: 
      objectReference: {fileID: 2100000, guid: 0ecd74f6c0a260c4c82f8779ca998942, type: 2}
    - target: {fileID: 4017923183841860995, guid: 308f61f1ee7813d47982614688ad691f, type: 3}
      propertyPath: m_Mesh
      value: 
      objectReference: {fileID: 0}
    m_RemovedComponents: []
  m_SourcePrefab: {fileID: 100100000, guid: 308f61f1ee7813d47982614688ad691f, type: 3}
